/DMajumdar.Paintings/photos/rpp.460256664037047/2860323724030317/?type=3&theater
/DMajumdar.Paintings/photos/rpp.460256664037047/1798989720163728/?type=3&theater
/DMajumdar.Paintings/photos/rpp.460256664037047/1768132459916121/?type=3&theater
/DMajumdar.Paintings/photos/rpp.460256664037047/1768132466582787/?type=3&theater
/DMajumdar.Paintings/photos/rpp.460256664037047/1769227786473255/?type=3&theater
/DMajumdar.Paintings/photos/rpp.460256664037047/1770005719728795/?type=3&theater
/DMajumdar.Paintings/photos/rpp.460256664037047/1770024413060259/?type=3&theater
/DMajumdar.Paintings/photos/rpp.460256664037047/1770112426384791/?type=3&theater
/DMajumdar.Paintings/photos/rpp.460256664037047/1772223279507039/?type=3&theater
/DMajumdar.Paintings/photos/rpp.460256664037047/1772303826165651/?type=3&theater
/DMajumdar.Paintings/photos/rpp.460256664037047/1772304726165561/?type=3&theater
/DMajumdar.Paintings/photos/rpp.460256664037047/1784084004987633/?type=3&theater
/DMajumdar.Paintings/photos/rpp.460256664037047/1790469151015785/?type=3&theater
/DMajumdar.Paintings/photos/rpp.460256664037047/1791596027569764/?type=3&theater
/DMajumdar.Paintings/photos/rpp.460256664037047/1820334341362599/?type=3&theater
/DMajumdar.Paintings/photos/rpp.460256664037047/2860319440697412/?type=3&theater
/DMajumdar.Paintings/photos/rpp.460256664037047/1839286076134092/?type=3&theater
/DMajumdar.Paintings/photos/rpp.460256664037047/1846770178719015/?type=3&theater
/DMajumdar.Paintings/photos/rpp.460256664037047/1937616849634347/?type=3&theater
/DMajumdar.Paintings/photos/rpp.460256664037047/1966646170064748/?type=3&theater
/DMajumdar.Paintings/photos/rpp.460256664037047/1977708202291878/?type=3&theater
/DMajumdar.Paintings/photos/rpp.460256664037047/1977709305625101/?type=3&theater
/DMajumdar.Paintings/photos/rpp.460256664037047/2444622438933783/?type=3&theater
/DMajumdar.Paintings/photos/rpp.460256664037047/2447720585290635/?type=3&theater
/DMajumdar.Paintings/photos/rpp.460256664037047/2455708087825218/?type=3&theater
/DMajumdar.Paintings/photos/rpp.460256664037047/2455710277824999/?type=3&theater
/DMajumdar.Paintings/photos/rpp.460256664037047/2455843534478340/?type=3&theater
/DMajumdar.Paintings/photos/rpp.460256664037047/2677200132342678/?type=3&theater
/DMajumdar.Paintings/photos/rpp.460256664037047/2730261360369888/?type=3&theater
/DMajumdar.Paintings/photos/rpp.460256664037047/1768132419916125/?type=3&theater
/DMajumdar.Paintings/photos/rpp.460256664037047/2860323724030317/?type=3&theater
